<?xml version="1.0" standalone="no"?>
<!DOCTYPE svg PUBLIC "-//W3C//DTD SVG 1.1//EN" "http://www.w3.org/Graphics/SVG/1.1/DTD/svg11.dtd" >
<!--
2013-9-30: Created.
-->
<svg>
<metadata>
Created by iconfont
</metadata>
<defs>

<font id="iconfont" horiz-adv-x="1024" >
  <font-face
    font-family="iconfont"
    font-weight="500"
    font-stretch="normal"
    units-per-em="1024"
    ascent="896"
    descent="-128"
  />
    <missing-glyph />
    
    <glyph glyph-name="OA" unicode="&#58888;" d="M1022.837227-14.190448H719.782735c-27.425687 0-54.890372 2.879862-54.890373 30.532538V163.058067H926.124857c17.12318 0 31.138509 21.478972 31.138509 47.693717 0 26.251743-14.015329 47.692717-31.138509 47.692716H664.892362v78.264254h13.259366H926.124857c17.12318 0 31.138509 21.478972 31.138509 47.692717 0 26.252743-14.015329 47.693717-31.138509 47.693717H664.892362v96.219394H926.124857c17.12318 0 31.138509 21.440974 31.138509 47.692716 0 26.214745-14.015329 47.693717-31.138509 47.693717H664.892362V750.983922c0 27.690674 22.425926 50.34459 49.777617 50.34459h296.234819c27.388689 0 49.776617-22.653916 49.776617-50.34459v-734.641832c0-27.653676-10.493498-30.532538-37.844188-30.532538zM544.20114-126.850055L50.942753-26.009882c-26.858714 5.455739-48.867661 32.616439-48.943657 60.308113L-0.008808 743.369287c-0.074996 27.691674 21.895952 54.436394 48.86766 59.437154L544.049147 895.047026C570.983858 900.085784 606.100177 884.781517 606.100177 857.089843v-947.043664c0-27.691674-35.041323-42.389971-61.899037-36.897234zM254.708998 451.869241c-19.85005 26.706722-47.238739 40.078081-82.128068 40.078081-34.964326 0-62.353015-13.37136-82.166067-40.078081-17.879144-23.941854-26.819716-53.981416-26.819716-90.158684 0-36.13927 8.939572-66.21683 26.820716-90.120686 19.812052-27.009707 47.20074-40.496061 82.166067-40.496061 34.88833 0 62.277019 13.486354 82.126068 40.496061 17.881144 23.902856 26.820716 53.981416 26.820716 90.120686 0 36.177268-8.939572 66.21683-26.819716 90.158684z m222.176364-83.680994h-2.159896v1.173944h1.66692l-49.473632 120.464233h-36.328261l-104.402002-255.397774h39.624103l28.448639 70.118643h109.403762l28.486637-70.119643h39.624103L476.886362 368.188247z m-68.111739 69.058694l40.041083-97.659325h-79.665186l39.624103 97.659325zM172.58093 267.006091c-23.410879 0-41.443016 10.152514-54.057412 30.456542-11.326458 17.236175-16.971188 38.678148-16.971188 64.246924 0 25.873761 5.530735 47.315735 16.517209 64.286923 12.689393 19.736055 30.797526 29.622582 54.511391 29.622582 23.638868 0 41.821998-9.886527 54.474392-29.623582 10.719487-16.970188 16.099229-38.412161 16.099229-64.284923 0-25.873761-5.529735-47.42773-16.516209-64.663904-12.652394-20.039041-30.684531-30.040562-54.057412-30.040562z"  horiz-adv-x="1060" />

    
    <glyph glyph-name="right" unicode="&#59371;" d="M765.7 409.2L314.9 761.3c-5.3 4.1-12.9 0.4-12.9-6.3v-77.3c0-4.9 2.3-9.6 6.1-12.6l360-281.1-360-281.1c-3.9-3-6.1-7.7-6.1-12.6V13c0-6.7 7.7-10.4 12.9-6.3l450.8 352.1c16.4 12.8 16.4 37.6 0 50.4z"  horiz-adv-x="1024" />

    
    <glyph glyph-name="left" unicode="&#59372;" d="M724 677.7V755c0 6.7-7.7 10.4-12.9 6.3L260.3 409.2c-16.4-12.8-16.4-37.5 0-50.3l450.8-352.1c5.3-4.1 12.9-0.4 12.9 6.3v77.3c0 4.9-2.3 9.6-6.1 12.6l-360 281 360 281.1c3.8 3 6.1 7.7 6.1 12.6z"  horiz-adv-x="1024" />

    
    <glyph glyph-name="up" unicode="&#59373;" d="M890.5 140.7L537.9 626.8c-12.8 17.6-39 17.6-51.7 0L133.5 140.7c-3.8-5.3-0.1-12.7 6.5-12.7h75c5.1 0 9.9 2.5 12.9 6.6L512 526.2l284.1-391.6c3-4.1 7.8-6.6 12.9-6.6h75c6.5 0 10.3 7.4 6.5 12.7z"  horiz-adv-x="1024" />

    
    <glyph glyph-name="down" unicode="&#59374;" d="M884 640h-75c-5.1 0-9.9-2.5-12.9-6.6L512 241.8 227.9 633.4c-3 4.1-7.8 6.6-12.9 6.6h-75c-6.5 0-10.3-7.4-6.5-12.7l352.6-486.1c12.8-17.6 39-17.6 51.7 0l352.6 486.1c3.9 5.3 0.1 12.7-6.4 12.7z"  horiz-adv-x="1024" />

    
    <glyph glyph-name="OA1" unicode="&#58953;" d="M923.417 746.929H684.425v-52.457H930.53c35.6 0 83.54-35.445 83.54-78.435v-449.98c0-35.15-47.94-76.254-83.54-76.254H684.425v-50.294l246.105-2.163A136.223 136.223 0 0 1 1065.8 173.1v435.91c-7.113 70.317-64.035 137.918-142.383 137.918zM553.222 834h-21.357l-377.29-70.3a120.595 120.595 0 0 1-92.54-112.496V123.88c0-49.22 34.146-93.301 92.54-112.494l377.29-77.345h21.357a95.88 95.88 0 0 1 98.65 98.442V735.576C644.722 791.823 615.924 834 553.221 834z m44.738-801.517a44.842 44.842 0 0 0-44.738-45.43h-7.113L165.84 72.495c-34.198 14.555-51.92 25.026-51.92 69.228l0.294 509.48a69.99 69.99 0 0 0 51.626 61.648l380.268 68.154h7.113a40.585 40.585 0 0 0 44.738-45.43v-703.093zM916.303 419.95H684.391v-53.652h231.912c21.357 0 35.583 4.69 35.583 25.77s-14.157 27.882-35.583 27.882z m0-172.896H684.391v-52.613h231.912c21.357 0 35.583 7.822 35.583 28.902s-14.157 23.71-35.583 23.71z m35.583 302.317c0 21.097-14.226 25.787-35.583 25.787H684.391v-52.682h231.912c21.426 0 35.583 5.815 35.583 26.895z m-578.362-96.123c-55.382 0-103.841 57.01-103.841 121.148s48.46 121.149 103.841 121.149 103.842-57.01 103.842-121.149-41.537-121.148-103.842-121.148z m0 190.376c-31.152 0-51.92-29.664-51.92-69.228s20.768-69.227 51.92-69.227 51.921 29.664 51.921 69.227-20.768 69.228-51.92 69.228z m23.07-241.275H311.22L175.95 123.292h66.354l35.549 70.353h150.224l52.63-102.977h72.516z m-97.299-156.42l54.586 103.841 54.603-103.841H299.295z"  horiz-adv-x="1142" />

    
    <glyph glyph-name="icon_dmail" unicode="&#60308;" d="M842.458317 631.666706c13.075807 11.887748 33.313733 10.923794 45.201482-2.153036 11.887748-13.075807 10.923794-33.313733-2.153037-45.201482L576.573691 303.463756c-36.614919-33.286104-92.532463-33.286104-129.147382 0L138.492214 584.312188c-13.07683 11.887748-14.039761 32.125675-2.152013 45.201482 11.887748 13.07683 32.124651 14.040784 45.201482 2.153036l308.934094-280.849456c12.204973-11.095709 30.843472-11.095709 43.048446 0L842.458317 631.666706zM99.555413 701.265854c-17.522072 0-31.726585-14.204513-31.726585-31.726586v-571.077513c0-17.522072 14.204513-31.726585 31.726585-31.726585h824.889174c17.522072 0 31.726585 14.204513 31.726585 31.726585V669.539268c0 17.522072-14.204513 31.726585-31.726585 31.726586H99.555413z m0 63.452147h824.889174c52.566216 0 95.179756-42.61354 95.179756-95.179756v-571.077513c0-52.566216-42.61354-95.179756-95.179756-95.179757H99.555413c-52.566216 0-95.179756 42.61354-95.179756 95.179757V669.539268c0 52.565193 42.61354 95.178733 95.179756 95.178733z"  horiz-adv-x="1024" />

    
    <glyph glyph-name="qrcode" unicode="&#60314;" d="M208.014614 225.18287799999996h127.994116c8.836249 0 15.999392-7.163143 15.999392-15.999392V81.18937000000005c0-8.836249-7.163143-15.999392-15.999392-15.999393H208.014614c-8.836249 0-15.999392 7.163143-15.999392 15.999393V209.18348600000002c0 8.836249 7.163143 15.999392 15.999392 15.999392z m479.976656 479.976656h127.994116c8.836249 0 15.999392-7.163143 15.999392-15.999393v-127.994116c0-8.836249-7.163143-15.999392-15.999392-15.999392H687.99127c-8.836249 0-15.999392 7.163143-15.999392 15.999392V689.1601410000001c0 8.836249 7.163143 15.999392 15.999392 15.999393z m-479.976656 0h127.994116c8.836249 0 15.999392-7.163143 15.999392-15.999393v-127.994116c0-8.836249-7.163143-15.999392-15.999392-15.999392H208.014614c-8.836249 0-15.999392 7.163143-15.999392 15.999392V689.1601410000001c0 8.836249 7.163143 15.999392 15.999392 15.999393z m399.980717 47.997154v-255.987209c0-8.836249 7.163143-15.999392 15.999393-15.999392h255.987208c8.836249 0 15.999392 7.163143 15.999393 15.999392V753.156688c0 8.836249-7.163143 15.999392-15.999393 15.999392H623.994724c-8.836249 0-15.999392-7.163143-15.999393-15.999392z m0 79.996962h287.985994c35.344996 0 63.996546-28.652574 63.996546-63.996547v-287.985993c0-35.344996-28.652574-63.996546-63.996546-63.996546H607.995331c-35.344996 0-63.996546 28.652574-63.996546 63.996546V769.15608c0 35.344996 28.65155 63.99757 63.996546 63.99757z m-479.976656-559.973618v-255.987209c0-8.836249 7.163143-15.999392 15.999393-15.999392h255.987208c8.836249 0 15.999392 7.163143 15.999393 15.999392V273.180032c0 8.836249-7.163143 15.999392-15.999393 15.999392H144.017044c-8.835226 0-15.998369-7.163143-15.998369-15.999392z m0 79.995939h287.985994c35.344996 0 63.996546-28.652574 63.996546-63.996547v-287.985993c0-35.344996-28.652574-63.996546-63.996546-63.996546H128.018675c-35.344996 0-63.996546 28.652574-63.996546 63.996546V289.17942400000004c-0.001023 35.344996 28.65155 63.996546 63.996546 63.996547z m0 399.980717v-255.987209c0-8.836249 7.163143-15.999392 15.999393-15.999392h255.987208c8.836249 0 15.999392 7.163143 15.999393 15.999392V753.156688c0 8.836249-7.163143 15.999392-15.999393 15.999392H144.017044c-8.835226 0-15.998369-7.163143-15.998369-15.999392z m0 79.996962h287.985994c35.344996 0 63.996546-28.652574 63.996546-63.996547v-287.985993c0-35.344996-28.652574-63.996546-63.996546-63.996546H128.018675c-35.344996 0-63.996546 28.652574-63.996546 63.996546V769.15608c-0.001023 35.344996 28.65155 63.99757 63.996546 63.99757z m671.967318-767.963673h-95.995331v-95.995331c0-17.672498-14.326287-31.998785-31.998784-31.998785h-95.995332c-17.672498 0-31.998785 14.326287-31.998784 31.998785v95.995331c0 17.672498 14.326287 31.998785 31.998784 31.998785h95.995332v95.995331h-95.995332c-17.672498 0-31.998785 14.326287-31.998784 31.998785v95.995331c0 17.672498 14.326287 31.998785 31.998784 31.998785h95.995332c17.672498 0 31.998785-14.326287 31.998784-31.998785v-95.995331h95.995331v95.995331c0 17.672498 14.326287 31.998785 31.998785 31.998785h95.995331c17.672498 0 31.998785-14.326287 31.998785-31.998785v-351.98254c0-17.672498-14.326287-31.998785-31.998785-31.998784h-95.995331c-17.672498 0-31.998785 14.326287-31.998785 31.998784v95.994308z"  horiz-adv-x="1024" />

    
    <glyph glyph-name="setting" unicode="&#60317;" d="M513.796926-63.977871c-5.249561 0-10.530844 0.077771-15.780405 0.26606a455.752951 455.752951 0 0 0-33.561374 2.422165c-15.249309 1.672082-27.154453 13.890358-28.404933 29.139668-1.812275 21.686928-10.624988 41.575908-25.498744 57.497528-35.311227 37.904285-93.745081 41.091884-132.868123 7.233752-11.562337-9.999748-28.592198-10.406001-40.716331-0.952698-26.936489 21.171182-51.497884 45.51359-72.996524 72.324212-9.561773 11.952216-9.342786 28.998451 0.531096 40.685631 14.062274 16.60826 21.904892 36.872792 22.654976 58.637492 1.781576 51.825342-37.248346 95.354741-88.871074 99.088786-15.280008 1.109264-27.65485 12.921287-29.467125 28.138874a451.200262 451.200262 0 0 0-2.874467 69.105914c0.406253 11.343349 1.187035 22.530133 2.405793 33.592072 1.655709 15.249309 13.905708 27.154453 29.185716 28.420283 21.655206 1.781576 41.498136 10.593266 57.435107 25.468045 37.936007 35.341926 41.091884 93.714382 7.250124 132.899846-9.999748 11.593036-10.406001 28.670993-0.937348 40.71633 21.248953 26.967188 45.560662 51.528584 72.340585 72.964802 11.906168 9.593496 28.967752 9.343809 40.685631-0.546445 16.59291-14.045901 36.872792-21.874193 58.653865-22.639627 52.841485-2.437515 95.339392 37.263695 99.088786 88.901773 1.093914 15.280008 12.905938 27.624151 28.123524 29.451776a452.740338 452.740338 0 0 0 69.121264 2.859117 458.812637 458.812637 0 0 0 33.561373-2.405793c15.249309-1.655709 27.154453-13.905708 28.435633-29.185716 1.781576-21.670555 10.561543-41.545208 25.436322-57.465806 35.311227-37.904285 93.745081-41.076534 132.931568-7.218402 11.562337 9.999748 28.686343 10.406001 40.685631 0.921999 26.967188-21.201881 51.497884-45.528939 72.964802-72.308863 9.593496-11.952216 9.342786-29.013801-0.562818-40.70098-14.030551-16.57756-21.874193-36.842093-22.624277-58.622143-1.781576-51.809993 37.248346-95.339392 88.901773-99.088785 15.311731-1.124614 27.65485-12.921287 29.467125-28.138874 2.687202-22.654976 3.656273-45.904493 2.843768-69.090565-0.406253-11.343349-1.187035-22.545482-2.405793-33.607422-1.655709-15.217586-13.905708-27.139104-29.155017-28.404933-21.655206-1.796926-41.560558-10.608615-57.497529-25.468045-37.904285-35.341926-41.060161-93.729731-7.218401-132.899846 9.999748-11.593036 10.406001-28.65462 0.937348-40.700981-21.217231-26.951839-45.528939-51.513234-72.340585-72.981175-11.968589-9.578146-28.998451-9.342786-40.685631 0.562819-16.562211 14.030551-36.810371 21.842471-58.622142 22.607904-52.934606 2.28095-95.339392-37.248346-99.088786-88.886423-1.093914-15.280008-12.905938-27.6395-28.123524-29.451776a452.746478 452.746478 0 0 0-53.340859-3.14155z m-18.624173 64.433498c1.687432-0.077771 3.374864-0.156566 5.062296-0.202615a397.114436 397.114436 0 0 1 35.560913 0.374531c17.936511 72.136947 83.277682 123.30635 160.804383 120.838135 26.498514-0.937348 52.40351-8.514931 75.120908-21.764699a381.427152 381.427152 0 0 1 28.65462 28.888957c-38.34226 63.669088-28.030403 146.633638 28.28009 199.131293 19.374256 18.077727 43.060725 31.029714 68.527746 37.732369 0.062422 1.719154 0.156566 3.452635 0.218988 5.17179a395.750369 395.750369 0 0 1-0.37453 35.513842c-72.152297 17.905812-123.525338 83.871199-120.838136 160.789033 0.906649 26.498514 8.499581 52.41886 21.74935 75.15263a387.007241 387.007241 0 0 1-28.873608 28.639271c-63.684438-38.325887-146.618289-28.01403-199.146642 28.26474-18.374486 19.701714-31.18628 43.044352-37.811164 68.543096-1.687432 0.077771-3.343141 0.156566-5.030573 0.202615-11.842723 0.390903-23.780613 0.312108-35.560914-0.37453-17.905812-72.152297-82.777285-123.213229-160.804383-120.838136-26.936489 0.952698-52.497655 8.390088-75.215052 21.732977a392.163681 392.163681 0 0 1-28.592198-28.841885c38.34226-63.684438 28.030403-146.648988-28.280091-199.131293-19.374256-18.077727-43.060725-31.045063-68.527746-37.747719-0.062422-1.719154-0.156566-3.437286-0.218987-5.15644-0.406253-11.812023-0.249687-23.701818 0.406252-35.513842 72.121598-17.905812 123.493615-83.871199 120.806414-160.804383-0.906649-26.920116-8.343015-52.497655-21.717628-75.215052a389.053853 389.053853 0 0 1 28.841885-28.576849c63.71616 38.404682 146.618289 28.01403 199.146643-28.26474 18.374486-19.701714 31.18628-43.027979 37.811164-68.543096z m18.467607 191.553711c-105.870236 0-191.990662 86.120426-191.990662 191.990662s86.120426 191.990662 191.990662 191.990662 191.990662-86.120426 191.990662-191.990662-86.120426-191.990662-191.990662-191.990662z m0 319.984778c-70.590731 0-127.994116-57.418734-127.994116-127.994116s57.403385-127.994116 127.994116-127.994116 127.994116 57.418734 127.994116 127.994116-57.403385 127.994116-127.994116 127.994116z"  horiz-adv-x="1024" />

    
    <glyph glyph-name="home" unicode="&#60319;" d="M336.00873 159.96962099999996h31.998785c17.672498 0 31.998785-14.326287 31.998785-31.998785v-31.998785c0-17.672498-14.326287-31.998785-31.998785-31.998785h-31.998785c-17.672498 0-31.998785 14.326287-31.998785 31.998785v31.998785c0 17.672498 14.326287 31.998785 31.998785 31.998785z m0 191.990662h31.998785c17.672498 0 31.998785-14.326287 31.998785-31.998785v-31.998785c0-17.672498-14.326287-31.998785-31.998785-31.998785h-31.998785c-17.672498 0-31.998785 14.326287-31.998785 31.998785v31.998785c0 17.672498 14.326287 31.998785 31.998785 31.998785z m383.981325-95.995331h31.998785c17.672498 0 31.998785-14.326287 31.998784-31.998785v-31.998785c0-17.672498-14.326287-31.998785-31.998784-31.998785h-31.998785c-17.672498 0-31.998785 14.326287-31.998785 31.998785v31.998785c0 17.672498 14.326287 31.998785 31.998785 31.998785zM336.00873 543.950945h31.998785c17.672498 0 31.998785-14.326287 31.998785-31.998785v-31.998784c0-17.672498-14.326287-31.998785-31.998785-31.998785h-31.998785c-17.672498 0-31.998785 14.326287-31.998785 31.998785v31.998784c0 17.672498 14.326287 31.998785 31.998785 31.998785zM176.015829-16.021649000000025H527.999392c8.836249 0 15.999392 7.163143 15.999393 15.999392V758.053208c0 8.836249-7.163143 15.999392-15.999393 15.999392-2.483564 0-4.933359-0.578168-7.154957-1.688455L168.860872 596.370829a15.999392 15.999392 0 0 1-8.844435-14.309914v-582.083172c0-8.836249 7.163143-15.999392 15.999392-15.999392z m447.978895 0h223.989447c8.836249 0 15.999392 7.163143 15.999392 15.999392V359.09272699999997a15.998369 15.998369 0 0 1-7.519254 13.566994l-248.468978 155.291832v-527.974833c0-8.835226 7.163143-15.998369 15.999393-15.998369z m-527.974833 0V591.949122a63.99757 63.99757 0 0 0 35.376718 57.240679L515.377934 841.180464c42.551118 21.276582 92.617397-9.66615 92.617397-57.240679v-191.888332c11.379165 0.025583 23.059182-3.043313 33.918507-9.829879l255.987209-159.991878a63.99757 63.99757 0 0 0 30.079062-54.268997v-383.981325h31.998785c17.672498 0 31.998785-14.326287 31.998785-31.998785s-14.326287-31.998785-31.998785-31.998785H64.021106c-17.672498 0-31.998785 14.326287-31.998785 31.998785s14.326287 31.998785 31.998785 31.998785h31.998785z"  horiz-adv-x="1024" />

    
    <glyph glyph-name="meeting" unicode="&#60322;" d="M381.691165 456.155367c10.141988-13.30912 34.540677-43.986817 33.101909-42.13668 1.511423-1.943258 1.517563-1.951445 3.056616-3.952008 5.879917-7.667633 11.293207-15.136745 17.319457-23.962761 23.430642-34.316573 36.788881-74.541717 36.788881-111.160729 0-47.219441-23.793916-83.636862-63.398935-107.129926-23.961738-14.213723-47.488571-21.972431-92.722798-33.505092-2.429329-0.6191-13.484106-3.420913-16.47216-4.184299a1275.563456 1275.563456 0 0 1-15.915481-4.1536c-31.630395-8.508791-52.031027-16.208147-66.868967-25.704428-22.529109-14.418384-37.473473-34.898835-46.042639-64.085574h683.974793c-8.107655 32.151257-23.183002 53.953819-46.323025 68.679195-14.648628 9.322319-34.973536 16.71366-66.085114 24.451902a1116.861968 1116.861968 0 0 1-16.660449 3.987824c-3.53757 0.822738-15.70161 3.622504-17.286711 3.989871-45.255717 10.475586-68.483744 17.572214-92.457762 31.216979-39.950897 22.73684-64.015989 59.069327-64.015989 106.437148 0 37.004799 13.246699 76.68145 36.788881 111.160729 5.966898 8.738012 11.330046 16.141632 17.060561 23.59744 1.753947 2.273786 1.753947 2.273786 3.492544 4.494361 2.036379 2.594081 24.225751 30.04734 33.93795 42.507116 9.851369 12.638855 17.004279 35.112706 19.472494 55.336306-10.168594 12.420891-16.240893 28.022217-16.240893 48.129161 0 11.483542-1.261737 28.559453-4.361331 47.352471-4.487198 27.207665-12.053524 53.06252-22.972201 75.449389-14.8318 30.407544-46.907333 47.485501-81.855286 48.770774-11.411911-10.384511-26.198685-17.147542-44.836161-19.052938l-6.430456-0.327458c-14.960737 0-43.429115-4.592598-47.0025-6.519484-49.688679-26.794249-62.443168-58.895365-61.292972-144.919601l0.00614-0.846274c0-19.998473-6.021134-35.536354-16.101723-47.910173 2.711761-19.700691 10.31902-42.856064 20.343327-56.009641z m-64.915475 167.371961a87.765903 87.765903 0 0 0-8.117888-1.208524l-6.426363-0.327458c-9.31618 0-29.141714-3.195785-29.28907-3.275603-32.550347-17.540492-40.339754-37.128619-39.512922-99.272981 0-16.32992-4.28356-29.645181-11.555174-40.572044 2.28095-11.435447 6.678096-23.747867 11.830443-30.503735 7.698333-10.095939 26.415626-33.611515 25.380041-32.281217 1.199315-1.540076 1.202385-1.545192 2.427282-3.13541 4.688789-6.109138 9.013281-12.071943 13.8044-19.084661 22.343891-32.700773 30.867008-51.554166 30.867009-83.210143 0-42.149982-21.771863-74.758658-57.142442-93.91188-20.086477-10.876722-38.314631-15.885805-74.363661-23.136953-24.490787-4.926196-20.171412-4.046153-26.916023-5.554506-21.488407-4.804423-35.287691-9.622148-44.367487-15.428388-11.43647-7.313569-21.104667-21.312398-27.443026-41.575907 38.34533 0.007163 64.4775 0.008186 78.395488 0.001023 8.41874 8.368598 17.800411 15.862269 28.145014 22.482037 82.781378 52.978609 226.228441 37.521568 226.228441 121.412211 0 22.340821-8.591679 50.334385-25.77606 75.500554-17.183358 25.167193-25.775037 33.556257-51.551096 67.381643-25.77606 33.824363-34.367739 83.620489-34.367739 108.787682 0 25.167193 17.183358 16.778128 17.183358 33.463136-0.303922 22.588461 0.240477 43.73406 2.567475 63.451124z m363.966479 76.216869c23.722284-2.349511 12.031011-13.029758 27.225061-14.511505 15.597233 0 48.26219-3.744277 62.052265-10.843976 67.37141-34.68701 77.108169-86.100984 76.144214-154.944931 0-12.83533 13.84431-6.381337 13.84431-25.741267 0-19.358907-6.922666-57.663304-27.68862-83.682911-20.766976-26.019607-27.688619-32.472576-41.532928-51.831483-13.84431-19.358907-20.765953-30.347169-20.765953-47.533596 0-64.530712 115.018593-44.002167 181.712575-84.755336 37.255509-22.76447 60.084447-66.687842 66.023716-123.327839a30.330796 30.330796 0 0 0 0.164752-3.152807c0-17.46272-14.81645-31.619138-33.092699-31.619138H911.115a223.067448 223.067448 0 0 0 4.716418-16.158005c8.53949-33.866319-11.991102-68.243267-45.85742-76.782757a63.22702 63.22702 0 0 0-15.462157-1.919723H170.537048c-34.926464 0-63.2393 28.313859-63.2393 63.2393 0 6.030343 0.862647 12.028964 2.561336 17.814738a212.366735 212.366735 0 0 0 4.563945 13.806447H37.6986c-17.46272 0-31.619138 14.156418-31.619138 31.619138 0 1.052982 0.052189 2.104941 0.157589 3.152807 5.675256 56.638975 27.487028 100.56337 63.083757 123.327839 63.724347 40.753169 173.621293 20.224624 173.621293 84.755336 0 17.185404-6.613628 28.173666-19.841907 47.532573-13.228279 19.358907-19.841907 25.811876-39.683814 51.831482-19.841907 26.019607-26.455535 64.324004-26.455535 83.682911s13.228279 12.905938 13.228279 25.741268c-0.921999 68.843948 8.381901 120.256898 72.752977 154.944931 13.175067 7.099698 44.38693 10.843976 59.289338 10.843976 16.32685 1.667989 0.162706 14.9679 36.180014 14.9679l-0.092098-4.475942c14.264888 25.556049 36.428677 47.461965 70.39835 65.780169 17.115819 9.229199 57.660234 14.097066 77.019141 14.097067 21.209044 2.167363 0.210801 19.459191 47.000454 19.45919 46.788629 0 111.858624-20.600177 142.960993-84.365456a277.460266 277.460266 0 0 0 5.043876-10.9504z m193.956433-568.692186c15.745612 0.00307 39.110763 0.001023 70.096475-0.005117-6.633071 20.263509-16.752546 34.262338-28.722158 41.575908-9.503445 5.806239-23.945365 10.623965-46.435589 15.428387-7.059789 1.508353-2.537799 0.62831-28.170596 5.554506-37.7293 7.251148-56.805774 12.260232-77.8296 23.136953-37.020148 19.153222-59.806107 51.761897-59.806107 93.91188 0 31.657001 8.92016 50.510394 32.305776 83.211167 5.0142 7.012717 9.540284 12.975523 14.44806 19.084661 1.281179 1.590218 1.285273 1.595334 2.539846 3.13541-1.083681-1.330298 18.505469 22.186302 26.562983 32.28224 5.3918 6.755868 9.994632 19.068288 12.380981 30.503735-7.610328 10.927887-12.093433 24.242124-12.093432 40.572044 0.864694 62.145385-7.286963 81.732489-41.354874 99.272981-0.154519 0.079818-20.903076 3.275603-30.65416 3.275603l-4.489244 0.218988c5.225001-29.643134 5.954619-53.210899 5.954618-62.041008 0-16.778128 17.183358-8.389064 17.183358-33.556257s-7.41283-74.962296-33.777291-108.787682c-26.365484-33.825386-34.957163-42.214451-52.140521-67.381644-17.183358-25.166169-25.77606-52.606125-25.776059-75.500554 0-83.889619 143.968949-63.752999 227.217978-116.730585 12.215206-7.774057 23.067368-16.827247 32.559556-27.161616z"  horiz-adv-x="1024" />

    
    <glyph glyph-name="icon_dmail_fill" unicode="&#60326;" d="M924.444587 764.718001H99.555413c-52.566216 0-95.179756-42.61354-95.179756-95.179756v-571.077513c0-52.566216 42.61354-95.179756 95.179756-95.179757h824.889174c52.566216 0 95.179756 42.61354 95.179756 95.179757V669.539268c0 52.565193-42.61354 95.178733-95.179756 95.178733z m-38.936801-180.405813L576.573691 303.463756c-36.614919-33.286104-92.532463-33.286104-129.147382 0L138.492214 584.312188c-13.07683 11.887748-14.039761 32.125675-2.152013 45.201482 11.887748 13.07683 32.124651 14.040784 45.201482 2.153036l308.934094-280.849456c12.204973-11.095709 30.843472-11.095709 43.048446 0L842.458317 631.666706c13.075807 11.887748 33.313733 10.923794 45.201482-2.153036 11.887748-13.075807 10.923794-33.313733-2.152013-45.201482z"  horiz-adv-x="1024" />

    
    <glyph glyph-name="icon_setting_fill" unicode="&#60335;" d="M513.299599 160.463877c123.706463 0 223.989447 100.282984 223.989447 223.989448 0 123.70544-100.282984 223.989447-223.989447 223.989447-123.70544 0-223.989447-100.282984-223.989447-223.989447 0-123.706463 100.284007-223.989447 223.989447-223.989448zM160.945599 661.142018a450.408223 450.408223 0 0 0 72.317049 72.983221c11.949146 9.578146 29.009707 9.346879 40.694841-0.551562 16.337083-13.839193 36.758182-21.866007 58.635445-22.630417 51.610448-1.802042 95.356788 37.564547 99.088786 88.890517 1.111311 15.288195 12.909008 27.640524 28.130687 29.452799a451.124538 451.124538 0 0 0 69.122287 2.87242 453.462792 453.462792 0 0 0 33.583886-2.420119c15.231913-1.667989 27.143197-13.900591 28.404934-29.17139 1.765203-21.341051 10.529821-41.460274 25.460881-57.471946 35.214013-37.762045 93.970208-40.86471 132.902916-7.226588 11.593036 10.016121 28.658713 10.410094 40.700981 0.939395a450.408223 450.408223 0 0 0 72.983221-72.317049c9.578146-11.949146 9.346879-29.009707-0.551562-40.695864-13.839193-16.337083-21.866007-36.758182-22.630416-58.635445-1.802042-51.610448 37.564547-95.356788 88.889493-99.088786 15.288195-1.111311 27.641547-12.909008 29.453822-28.130688a451.124538 451.124538 0 0 0 2.871397-69.122287 454.017424 454.017424 0 0 0-2.419096-33.583886c-1.669012-15.231913-13.900591-27.142174-29.17139-28.404933-21.341051-1.765203-41.460274-10.529821-57.472969-25.460882-37.762045-35.214013-40.86471-93.970208-7.226588-132.902916 10.016121-11.593036 10.410094-28.658713 0.939395-40.70098a450.408223 450.408223 0 0 0-72.317049-72.983222c-11.949146-9.578146-29.009707-9.346879-40.694841 0.551562-16.337083 13.839193-36.759205 21.866007-58.635445 22.629394-51.610448 1.802042-95.356788-37.564547-99.088786-88.889493-1.111311-15.288195-12.909008-27.640524-28.130687-29.453823a451.117374 451.117374 0 0 0-69.121264-2.87242 453.462792 453.462792 0 0 0-33.583886 2.420119c-15.231913 1.667989-27.143197 13.900591-28.404934 29.17139-1.765203 21.341051-10.529821 41.460274-25.460881 57.471946-35.214013 37.762045-93.971232 40.86471-132.902916 7.226588-11.593036-10.016121-28.658713-10.410094-40.700981-0.939395a450.408223 450.408223 0 0 0-72.983221 72.317049c-9.578146 11.949146-9.346879 29.009707 0.551562 40.694841 13.839193 16.337083 21.866007 36.758182 22.629393 58.635445 1.802042 51.610448-37.564547 95.356788-88.889493 99.088786-15.288195 1.111311-27.640524 12.909008-29.453822 28.130687a451.117374 451.117374 0 0 0-2.872421 69.121264 453.462792 453.462792 0 0 0 2.420119 33.583886c1.667989 15.231913 13.900591 27.142174 29.17139 28.404934 21.341051 1.76418 41.460274 10.529821 57.471946 25.460881 37.762045 35.214013 40.86471 93.971232 7.226589 132.902916-10.016121 11.595083-10.410094 28.661783-0.938372 40.704051z"  horiz-adv-x="1024" />

    
    <glyph glyph-name="clear" unicode="&#60338;" d="M512 831.978894c-247.405763 0-447.978894-200.572108-447.978894-447.978894s200.572108-447.978894 447.978894-447.978894S959.977871 136.59423700000002 959.977871 384 759.405763 831.978894 512 831.978894z m135.75794-628.989481L512 338.747353 376.24206 202.989413c-12.496615-12.496615-32.757055-12.495592-45.252647 0s-12.496615 32.756031 0 45.252647l135.75794 135.75794L330.989413 519.75794c-12.496615 12.496615-12.495592 32.757055 0 45.252647 12.495592 12.495592 32.756031 12.496615 45.252647 0l135.75794-135.75794 135.75794 135.75794c12.495592 12.495592 32.756031 12.496615 45.252647 0s12.495592-32.757055 0-45.252647L557.252647 384l135.75794-135.75794c12.495592-12.495592 12.495592-32.757055 0-45.252647-12.496615-12.495592-32.757055-12.495592-45.252647 0z"  horiz-adv-x="1024" />

    
    <glyph glyph-name="manage" unicode="&#60339;" d="M176.015829 767.981325c-26.508747 0-47.998177-21.48943-47.998177-47.998178v-191.990662c0-26.508747 21.48943-47.998177 47.998177-47.998177h191.990663c26.508747 0 47.998177 21.48943 47.998177 47.998177V719.9841710000001c0 26.508747-21.48943 47.998177-47.998177 47.998177H176.015829z m-15.999392 63.997569h223.989447c53.016471 0 95.995331-42.97886 95.995331-95.995331v-223.989447c0-53.016471-42.97886-95.995331-95.995331-95.995331H160.016437c-53.016471 0-95.995331 42.97886-95.995331 95.995331V735.983563c0 53.016471 42.97886 95.995331 95.995331 95.995331z m0-543.974225c-17.672498 0-31.998785-14.326287-31.998785-31.998785v-223.989447c0-17.672498 14.326287-31.998785 31.998785-31.998785h223.989447c17.672498 0 31.998785 14.326287 31.998785 31.998785V256.00588400000004c0 17.672498-14.326287 31.998785-31.998785 31.998785H160.016437z m0 63.996546h223.989447c53.016471 0 95.995331-42.97886 95.995331-95.995331v-223.989447c0-53.016471-42.97886-95.995331-95.995331-95.995331H160.016437c-53.016471 0-95.995331 42.97886-95.995331 95.995331V256.00588400000004c0 53.017494 42.97886 95.995331 95.995331 95.995331zM639.994116 767.981325c-17.672498 0-31.998785-14.326287-31.998785-31.998785v-223.989447c0-17.672498 14.326287-31.998785 31.998785-31.998785h223.989447c17.672498 0 31.998785 14.326287 31.998785 31.998785V735.983563c0 17.672498-14.326287 31.998785-31.998785 31.998785H639.994116z m0 63.997569h223.989447c53.016471 0 95.995331-42.97886 95.995331-95.995331v-223.989447c0-53.016471-42.97886-95.995331-95.995331-95.995331H639.994116c-53.016471 0-95.995331 42.97886-95.995331 95.995331V735.983563c0 53.016471 42.977837 95.995331 95.995331 95.995331z m0-543.974225c-17.672498 0-31.998785-14.326287-31.998785-31.998785v-223.989447c0-17.672498 14.326287-31.998785 31.998785-31.998785h223.989447c17.672498 0 31.998785 14.326287 31.998785 31.998785V256.00588400000004c0 17.672498-14.326287 31.998785-31.998785 31.998785H639.994116z m0 63.996546h223.989447c53.016471 0 95.995331-42.97886 95.995331-95.995331v-223.989447c0-53.016471-42.97886-95.995331-95.995331-95.995331H639.994116c-53.016471 0-95.995331 42.97886-95.995331 95.995331V256.00588400000004c0 53.017494 42.977837 95.995331 95.995331 95.995331z"  horiz-adv-x="1024" />

    


  </font>
</defs></svg>
